%YAML 1.1
%TAG !u! tag:unity3d.com,2011:
--- !u!21 &2100000
Material:
  serializedVersion: 6
  m_ObjectHideFlags: 0
  m_PrefabParentObject: {fileID: 0}
  m_PrefabInternal: {fileID: 0}
  m_Name: Platform_Glow
  m_Shader: {fileID: 4800000, guid: 9b00513eaa4a45841bbd113c4088a5e1, type: 3}
  m_ShaderKeywords: 
  m_LightmapFlags: 4
  m_EnableInstancingVariants: 0
  m_DoubleSidedGI: 0
  m_CustomRenderQueue: -1
  stringTagMap: {}
  disabledShaderPasses: []
  m_SavedProperties:
    serializedVersion: 3
    m_TexEnvs:
    - _Normal_Texture:
        m_Texture: {fileID: 2800000, guid: 01d435fe34a7046498d844936f347a02, type: 3}
        m_Scale: {x: 1, y: 1}
        m_Offset: {x: 0, y: 0}
    - _Opacity_Clip:
        m_Texture: {fileID: 2800000, guid: b36d09538fc343446bf6ca1f6c3b908b, type: 3}
        m_Scale: {x: 5, y: 2}
        m_Offset: {x: 0, y: 0}
    - _Texture_Mask:
        m_Texture: {fileID: 2800000, guid: b36d09538fc343446bf6ca1f6c3b908b, type: 3}
        m_Scale: {x: 2.25, y: 2.25}
        m_Offset: {x: 0, y: 0}
    m_Floats:
    - _001: 0.25
    - _Cutoff: 0.5
    - _Cycle_Rate: 1.5
    - _Distortion: 0.33
    - _Frecuency: 3
    - _Frecuency_01: 3.07
    - _Frecuency_02: 4.96
    - _Normal_Strenght: 0
    - _Offset_Intensity: 0.025
    - _Opacity_Streght: 1
    - _U_Frecuency: -0.96
    - _U_Wave_Lenght: 0.82
    - _V_Frecuency: 0
    - _V_Wave_Lenght: 0
    - _Wave_Lenght: 0.15
    - _Wave_Rate: 0.6
    - _Wave_Rate_01: 0
    - _Wave_Rate_02: 0.67
    m_Colors:
    - _Glow_Color: {r: 0, g: 0.8758621, b: 1, a: 1}
