%YAML 1.1
%TAG !u! tag:unity3d.com,2011:
--- !u!21 &2100000
Material:
  serializedVersion: 6
  m_ObjectHideFlags: 0
  m_CorrespondingSourceObject: {fileID: 0}
  m_PrefabInstance: {fileID: 0}
  m_PrefabAsset: {fileID: 0}
  m_Name: Metalic_Console_1
  m_Shader: {fileID: 4800000, guid: 202aadb0e6714094c88556263f905ca8, type: 3}
  m_ShaderKeywords: _DETAIL_MULX2 _EMISSION _NORMALMAP
  m_LightmapFlags: 1
  m_EnableInstancingVariants: 0
  m_DoubleSidedGI: 0
  m_CustomRenderQueue: -1
  stringTagMap: {}
  disabledShaderPasses: []
  m_SavedProperties:
    serializedVersion: 3
    m_TexEnvs:
    - _BaseColor:
        m_Texture: {fileID: 2800000, guid: d0f4a3a7a0b77134e9543a36c8e3122f, type: 3}
        m_Scale: {x: 1, y: 1}
        m_Offset: {x: 0, y: 0}
    - _BaseMask:
        m_Texture: {fileID: 2800000, guid: 1fbfb45549300614b9c6db6cf212179d, type: 3}
        m_Scale: {x: 1, y: 1}
        m_Offset: {x: 0, y: 0}
    - _BumpMap:
        m_Texture: {fileID: 0}
        m_Scale: {x: 1, y: 1}
        m_Offset: {x: 0, y: 0}
    - _DetailAlbedoMap:
        m_Texture: {fileID: 0}
        m_Scale: {x: 1, y: 1}
        m_Offset: {x: 0, y: 0}
    - _DetailMask:
        m_Texture: {fileID: 0}
        m_Scale: {x: 1, y: 1}
        m_Offset: {x: 0, y: 0}
    - _DetailNormalMap:
        m_Texture: {fileID: 2800000, guid: 802967e601a46764c90d098e998f98f3, type: 3}
        m_Scale: {x: 1, y: 1}
        m_Offset: {x: 0, y: 0}
    - _EmissionMap:
        m_Texture: {fileID: 2800000, guid: 1fbfb45549300614b9c6db6cf212179d, type: 3}
        m_Scale: {x: 1, y: 1}
        m_Offset: {x: 0, y: 0}
    - _GlowMask:
        m_Texture: {fileID: 2800000, guid: 1596df06dda52b94d8ee3815d2040ccf, type: 3}
        m_Scale: {x: 0, y: 0}
        m_Offset: {x: 0, y: 0}
    - _MainTex:
        m_Texture: {fileID: 2800000, guid: d0f4a3a7a0b77134e9543a36c8e3122f, type: 3}
        m_Scale: {x: 1, y: 1}
        m_Offset: {x: 0, y: 0}
    - _MetallicGlossMap:
        m_Texture: {fileID: 0}
        m_Scale: {x: 1, y: 1}
        m_Offset: {x: 0, y: 0}
    - _OcclusionMap:
        m_Texture: {fileID: 0}
        m_Scale: {x: 1, y: 1}
        m_Offset: {x: 0, y: 0}
    - _ParallaxMap:
        m_Texture: {fileID: 0}
        m_Scale: {x: 1, y: 1}
        m_Offset: {x: 0, y: 0}
    m_Floats:
    - _BumpScale: 1
    - _Cutoff: 0.5
    - _DetailNormalMapScale: 0.2
    - _DstBlend: 0
    - _Frecuency: -0.44
    - _GlossMapScale: 1
    - _Glossiness: 0.25
    - _GlossyReflections: 1
    - _GlowAnimSpeed: 0
    - _GlowIntensity: 2
    - _GreenMaskIntensity: 2.24
    - _Metallic: 0.18
    - _Mode: 0
    - _OcclusionStrength: 1
    - _Parallax: 0.02
    - _RedMaskIntensity: 2
    - _RimIntensity: 1.67
    - _SmoothnessTextureChannel: 0
    - _SpecularHighlights: 1
    - _SrcBlend: 1
    - _UVSec: 0
    - _Wave_Lenght: -4.49
    - _ZWrite: 1
    m_Colors:
    - _Color: {r: 0, g: 0, b: 0, a: 1}
    - _EmissionColor: {r: 1, g: 1, b: 1, a: 1}
    - _GreenMaskColor: {r: 1, g: 1, b: 1, a: 1}
    - _RedMaskColor: {r: 1, g: 1, b: 1, a: 1}
    - _RimColor: {r: 0, g: 0.86764705, b: 0.4368156, a: 1}
